Ano1/LSD/projeto/Projeto/Fase1/simulation/qsim/DataPath.msim.vcd
$comment
	File created using the following command:
		vcd file DataPath.msim.vcd -direction
$end
$date
	Wed Jun 03 11:55:06 2020
$end
$version
	ModelSim Version 10.5b
$end
$timescale
	1ps
$end

$scope module imemory_vhd_vec_tst $end
$var wire 1 ! clk $end
$var wire 1 " En $end
$var wire 1 # RA [2] $end
$var wire 1 $ RA [1] $end
$var wire 1 % RA [0] $end
$var wire 1 & RD [15] $end
$var wire 1 ' RD [14] $end
$var wire 1 ( RD [13] $end
$var wire 1 ) RD [12] $end
$var wire 1 * RD [11] $end
$var wire 1 + RD [10] $end
$var wire 1 , RD [9] $end
$var wire 1 - RD [8] $end
$var wire 1 . RD [7] $end
$var wire 1 / RD [6] $end
$var wire 1 0 RD [5] $end
$var wire 1 1 RD [4] $end
$var wire 1 2 RD [3] $end
$var wire 1 3 RD [2] $end
$var wire 1 4 RD [1] $end
$var wire 1 5 RD [0] $end

$scope module i1 $end
$var wire 1 6 gnd $end
$var wire 1 7 vcc $end
$var wire 1 8 unknown $end
$var wire 1 9 devoe $end
$var wire 1 : devclrn $end
$var wire 1 ; devpor $end
$var wire 1 < ww_devoe $end
$var wire 1 = ww_devclrn $end
$var wire 1 > ww_devpor $end
$var wire 1 ? ww_clk $end
$var wire 1 @ ww_En $end
$var wire 1 A ww_RA [2] $end
$var wire 1 B ww_RA [1] $end
$var wire 1 C ww_RA [0] $end
$var wire 1 D ww_RD [15] $end
$var wire 1 E ww_RD [14] $end
$var wire 1 F ww_RD [13] $end
$var wire 1 G ww_RD [12] $end
$var wire 1 H ww_RD [11] $end
$var wire 1 I ww_RD [10] $end
$var wire 1 J ww_RD [9] $end
$var wire 1 K ww_RD [8] $end
$var wire 1 L ww_RD [7] $end
$var wire 1 M ww_RD [6] $end
$var wire 1 N ww_RD [5] $end
$var wire 1 O ww_RD [4] $end
$var wire 1 P ww_RD [3] $end
$var wire 1 Q ww_RD [2] $end
$var wire 1 R ww_RD [1] $end
$var wire 1 S ww_RD [0] $end
$var wire 1 T \RD[0]~output_o\ $end
$var wire 1 U \RD[1]~output_o\ $end
$var wire 1 V \RD[2]~output_o\ $end
$var wire 1 W \RD[3]~output_o\ $end
$var wire 1 X \RD[4]~output_o\ $end
$var wire 1 Y \RD[5]~output_o\ $end
$var wire 1 Z \RD[6]~output_o\ $end
$var wire 1 [ \RD[7]~output_o\ $end
$var wire 1 \ \RD[8]~output_o\ $end
$var wire 1 ] \RD[9]~output_o\ $end
$var wire 1 ^ \RD[10]~output_o\ $end
$var wire 1 _ \RD[11]~output_o\ $end
$var wire 1 ` \RD[12]~output_o\ $end
$var wire 1 a \RD[13]~output_o\ $end
$var wire 1 b \RD[14]~output_o\ $end
$var wire 1 c \RD[15]~output_o\ $end
$var wire 1 d \clk~input_o\ $end
$var wire 1 e \En~input_o\ $end
$var wire 1 f \RA[0]~input_o\ $end
$var wire 1 g \RA[2]~input_o\ $end
$var wire 1 h \RA[1]~input_o\ $end
$var wire 1 i \RD~0_combout\ $end
$var wire 1 j \RD[0]~reg0_q\ $end
$var wire 1 k \RD~1_combout\ $end
$var wire 1 l \RD[1]~reg0_q\ $end
$var wire 1 m \RD~2_combout\ $end
$var wire 1 n \RD[2]~reg0_q\ $end
$var wire 1 o \RD~3_combout\ $end
$var wire 1 p \RD[4]~reg0_q\ $end
$var wire 1 q \RD[6]~reg0_q\ $end
$var wire 1 r \RD~4_combout\ $end
$var wire 1 s \RD[7]~reg0_q\ $end
$var wire 1 t \RD~5_combout\ $end
$var wire 1 u \RD[8]~reg0_q\ $end
$var wire 1 v \RD~6_combout\ $end
$var wire 1 w \RD[9]~reg0_q\ $end
$var wire 1 x \RD~7_combout\ $end
$var wire 1 y \RD[10]~reg0_q\ $end
$var wire 1 z \RD~8_combout\ $end
$var wire 1 { \RD[12]~reg0_q\ $end
$var wire 1 | \RD~9_combout\ $end
$var wire 1 } \RD[13]~reg0_q\ $end
$var wire 1 ~ \RD~10_combout\ $end
$var wire 1 !! \RD[14]~reg0_q\ $end
$var wire 1 "! \RD~11_combout\ $end
$var wire 1 #! \RD[15]~reg0_q\ $end
$upscope $end
$upscope $end
$enddefinitions $end
#0
$dumpvars
0!
0"
06
17
x8
19
1:
1;
1<
1=
1>
0?
0@
0T
0U
0V
0W
0X
0Y
0Z
0[
0\
0]
0^
0_
0`
0a
0b
0c
0d
0e
1f
0g
1h
0i
0j
0k
0l
0m
0n
0o
0p
0q
0r
0s
0t
0u
0v
0w
0x
0y
0z
0{
0|
0}
0~
0!!
0"!
0#!
0#
1$
1%
0A
1B
1C
0D
0E
0F
0G
0H
0I
0J
0K
0L
0M
0N
0O
0P
0Q
0R
0S
0&
0'
0(
0)
0*
0+
0,
0-
0.
0/
00
01
02
03
04
05
$end
#50000
1"
0%
1@
0C
0f
1e
1k
1r
1t
1|
1~
1"!
#100000
1#
1A
1g
0k
0t
0|
#120000
1!
1?
1d
1s
1!!
1#!
1c
1b
1[
1D
1E
1L
1.
1'
1&
#150000
1%
0$
1C
0B
0h
1f
1o
1t
1x
1z
1|
0~
0"!
#160000
0"
0@
0e
0o
0r
0t
0x
0z
0|
#200000
0%
1$
0!
0C
1B
0?
0d
1h
0f
#250000
0#
0A
0g
#260000
1"
1@
1e
1k
1r
1t
1|
1~
1"!
#300000
1#
1A
1g
0k
0t
0|
#320000
1!
1?
1d
#330000
0"
0@
0e
0r
0~
0"!
#350000
0$
0B
0h
#400000
1$
0!
0#
1B
0A
0?
0d
0g
1h
#450000
0$
1%
1C
0B
0h
1f
#500000
0%
1!
1#
0C
1A
1?
1d
1g
0f
0s
0!!
0#!
0c
0b
0[
0D
0E
0L
0.
0'
0&
#550000
0#
1$
1B
0A
0g
1h
#600000
0$
0!
0B
0?
0d
0h
#650000
1$
1%
1C
1B
1h
1f
#670000
1"
1@
1e
1m
1t
1x
1|
#700000
0$
0%
1#
0C
0B
1A
1g
0h
0f
1i
0m
1r
0t
1v
0x
1z
0|
1"!
#720000
1!
1?
1d
1j
1s
1w
1{
1#!
1c
1`
1]
1[
1T
1D
1G
1J
1L
1S
15
1.
1,
1)
1&
#750000
0#
0A
0g
0i
0v
0z
1|
1~
#760000
0"
0@
0e
0r
0|
0~
0"!
#800000
0!
0?
0d
#850000
1$
1%
1C
1B
1h
1f
#900000
0$
0%
1#
0C
0B
1A
1g
0h
0f
#920000
1!
1?
1d
0j
0s
0w
0{
0#!
0c
0`
0]
0[
0T
0D
0G
0J
0L
0S
05
0.
0,
0)
0&
#950000
1$
1B
1h
